<?xml version="1.0" encoding="UTF-8"?>
<svg width="23px" height="26px" viewBox="0 0 23 26" version="1.1" xmlns="http://www.w3.org/2000/svg" xmlns:xlink="http://www.w3.org/1999/xlink">
    <!-- Generator: sketchtool 53 (72520) - https://sketchapp.com -->
    <title>7A54AFFA-4C79-4A8B-851B-2EBF612325B9</title>
    <desc>Created with sketchtool.</desc>
    <g id="UI" stroke="none" stroke-width="1" fill="none" fill-rule="evenodd">
        <g id="Item" transform="translate(-65.000000, -291.000000)" fill="#2F2F2F">
            <g id="Group-7" transform="translate(66.000000, 292.000000)">
                <g id="calorie">
                    <path d="M13.2846562,1.54007813 C13.0352812,1.41539062 12.7390313,1.62928125 12.7785469,1.90504687 C13.0420313,3.75 12.5200312,5.01271875 12.2464687,5.523375 C11.883375,5.257875 11.4633281,4.66715625 11.2372031,3.87210938 C11.0386875,3.17470312 10.860375,1.81917187 11.8949063,0.5776875 C12.0824063,0.352640625 11.9167031,0 11.62425,0 C9.47770312,0 7.75875,1.30645312 6.65296875,3.77784375 C6.10345312,5.00648438 5.8365,6.22171875 5.71875,6.90215625 C5.19965625,6.47845312 4.93542188,5.84746875 4.93157813,5.01984375 C4.92773438,4.19915625 5.1885,3.48834375 5.19084375,3.48173437 C5.24339063,3.34167187 5.19928125,3.1790625 5.08317187,3.08460938 C4.95923437,2.9840625 4.77759375,2.98040625 4.64976563,3.07635938 C4.601625,3.11240625 3.4610625,3.97776562 2.31351562,5.69896875 C1.258125,7.282125 0,9.921 0,13.5029063 C0,16.1625469 1.13325,18.82125 3.109125,20.7969375 C5.17457813,22.8625312 7.93176562,24 10.8727969,24 C13.8136406,24 16.5267188,22.8085313 18.5119688,20.6451562 C20.3281875,18.6661406 21.3698906,16.06275 21.3698906,13.5029063 C21.3698906,8.24742188 18.6496406,4.22259375 13.2846562,1.54007813 Z M10.8727969,23.2954219 C5.36095312,23.2954219 0.704578125,18.8111719 0.704578125,13.5029062 C0.704578125,10.1112656 1.88929687,7.61315625 2.8831875,6.11460937 C3.375375,5.37248437 3.87103125,4.79479687 4.266,4.38482813 C4.2421875,4.577625 4.227,4.78565625 4.227,5.00189062 C4.227,6.312 4.781625,7.28175 5.83082812,7.80632812 C6.04725,7.9145625 6.3133125,7.76807812 6.33857812,7.52803125 C6.34040625,7.51078125 6.52935937,5.77935937 7.296,4.06546875 C8.163375,2.12676562 9.37720312,1.01878125 10.9109062,0.76246875 C10.171875,2.05757812 10.3564687,3.351 10.5595312,4.06495312 C10.8720937,5.16375 11.5732031,6.09210937 12.2644219,6.32245313 C12.4081406,6.37040625 12.5665312,6.321 12.6575156,6.19959375 C12.7029375,6.13898437 13.6816406,4.80248437 13.5432187,2.467875 C18.2700937,5.0161875 20.6652656,8.725875 20.6652656,13.5029062 C20.6652656,18.2319844 16.7305312,23.2954219 10.8727969,23.2954219 Z" id="Fill-1" stroke="#2F2F2F" stroke-width="0.5"></path>
                    <path d="M17.2602656,8.64182812 L15.4050469,8.64182812 C15.2105625,8.64182812 15.0529219,8.79970312 15.0529219,8.99414062 C15.0529219,9.18857812 15.2105625,9.34645313 15.4050469,9.34645313 L17.2602656,9.34645313 C17.687625,9.34645313 18.0351562,9.69398437 18.0351562,10.1213437 L18.0351562,17.2602656 C18.0351562,17.687625 17.687625,18.0351562 17.2602656,18.0351562 L4.485375,18.0351562 C4.05796875,18.0351562 3.7104375,17.687625 3.7104375,17.2602656 L3.7104375,10.1213437 C3.7104375,9.69398437 4.05796875,9.34645313 4.485375,9.34645313 L13.7142187,9.34645313 C13.9088906,9.34645313 14.0665312,9.18857812 14.0665312,8.99414062 C14.0665312,8.79970312 13.9088906,8.64182812 13.7142187,8.64182812 L4.485375,8.64182812 C3.66960937,8.64182812 3.00585938,9.305625 3.00585938,10.1213437 L3.00585938,17.2602656 C3.00585938,18.0759844 3.66960937,18.7397344 4.485375,18.7397344 L17.2602656,18.7397344 C18.0759844,18.7397344 18.7397344,18.0759844 18.7397344,17.2602656 L18.7397344,10.1213437 C18.7397344,9.305625 18.0759844,8.64182812 17.2602656,8.64182812 Z" id="Fill-2" stroke="#2F2F2F" stroke-width="0.5"></path>
                    <path d="M8.437125,14.1139688 L9.22429688,15.2384063 C9.25101563,15.2757656 9.26165625,15.3133125 9.26165625,15.3508125 C9.26165625,15.5114063 9.03679688,15.6934219 8.87090625,15.6934219 C8.80115625,15.6934219 8.742375,15.6613594 8.69953125,15.6024375 L7.976625,14.5369219 L7.64465625,14.8421719 L7.64465625,15.4310156 C7.64465625,15.538125 7.4840625,15.6505781 7.29126563,15.6505781 C7.0933125,15.6505781 6.954,15.538125 6.954,15.4310156 L6.954,11.8385156 C6.954,11.7099375 7.0933125,11.62425 7.29126563,11.62425 C7.4840625,11.62425 7.64465625,11.7099375 7.64465625,11.8385156 L7.64465625,14.0819063 L8.65134375,13.1341406 C8.68870312,13.102125 8.73707813,13.0807031 8.79051563,13.0807031 C8.94046875,13.0807031 9.12782813,13.257375 9.12782813,13.4126719 C9.12782813,13.4608125 9.10640625,13.5036563 9.06904688,13.5412031 L8.437125,14.1139688 Z" id="Fill-3"></path>
                    <path d="M9.45445312,14.6011875 L9.45445312,14.1728906 C9.45445312,13.5571406 9.80254687,13.0752187 10.6109531,13.0752187 C11.1142969,13.0752187 11.4677344,13.2841406 11.4677344,13.492875 C11.4677344,13.6214062 11.3605781,13.8301406 11.1945,13.8301406 C11.0767969,13.8301406 10.9804687,13.680375 10.6644375,13.680375 C10.3004062,13.680375 10.1451562,13.8623437 10.1451562,14.1728906 L10.1451562,14.6011875 C10.1451562,14.9117344 10.3004062,15.09375 10.6699219,15.09375 C10.9911094,15.09375 11.0714531,14.9331562 11.2053281,14.9331562 C11.3926406,14.9331562 11.49975,15.126 11.49975,15.2598281 C11.49975,15.4738594 11.1196406,15.6987187 10.61625,15.6987187 C9.80784375,15.6987187 9.45445312,15.2275781 9.45445312,14.6011875 Z" id="Fill-4"></path>
                    <path d="M13.8715312,14.1194531 L13.8715312,15.4312031 C13.8715312,15.55425 13.7270625,15.6507656 13.5342187,15.6507656 C13.3575469,15.6507656 13.2236719,15.55425 13.2236719,15.4312031 L13.2236719,15.2759531 C13.030875,15.4954687 12.7792969,15.6989062 12.4097812,15.6989062 C12.0296719,15.6989062 11.7138281,15.4740469 11.7138281,14.9868281 C11.7138281,14.3710312 12.2224687,14.1996562 12.9613125,14.1996562 L13.1808281,14.1996562 L13.1808281,14.1300469 C13.1808281,13.8998906 13.063125,13.6375312 12.7097344,13.6375312 C12.297375,13.6375312 12.2277656,13.8034219 12.0992344,13.8034219 C11.9441719,13.8034219 11.8637812,13.6161094 11.8637812,13.4608125 C11.8637812,13.24125 12.3402187,13.0753594 12.7203281,13.0753594 C13.5556875,13.0753594 13.8715312,13.5785625 13.8715312,14.1194531 Z M13.1808281,14.5583437 L13.100625,14.5583437 C12.7419375,14.5583437 12.4044844,14.5958906 12.4044844,14.8956094 C12.4044844,15.09375 12.5277187,15.1847344 12.6883125,15.1847344 C12.9078281,15.1847344 13.1808281,14.9331562 13.1808281,14.6707969 L13.1808281,14.5583437 Z" id="Fill-5"></path>
                    <path d="M15.1245,11.8385156 L15.1245,15.4310156 C15.1245,15.538125 14.9637656,15.6505781 14.7764062,15.6505781 C14.5730156,15.6505781 14.4338437,15.538125 14.4338437,15.4310156 L14.4338437,11.8385156 C14.4338437,11.7099375 14.5730156,11.62425 14.7764062,11.62425 C14.9637656,11.62425 15.1245,11.7099375 15.1245,11.8385156 Z" id="Fill-6"></path>
                </g>
            </g>
        </g>
    </g>
</svg>